{
  "grid_params": {
    "page_size": 50,
    "column_widths": {
      "uberstrain": 100,
      "strain": 100,
      "contact": 100,
      "ribotype": 100,
      "antibiotic_resistance": 100,
      "comment": 100,
      "created": 100,
      "serotype": 100,
      "release_date": 100,
      "barcode": 100,
      "Accession": 100,
      "Source": 100,
      "Collection Date": 100,
      "Location": 100,
      "Project": 100,
      "Sample": 100,
      "checkselect": 25,
      "edit_individual": 25
    },
    "hidden_columns": {
      
    },
    "column_order": {
      "uberstrain": 0,
      "checkselect": 1,
      "edit_individual": 2,
      "strain": 3,
      "Accession": 4,
      "Source": 5,
      "Collection Date": 6,
      "Location": 7,
      "contact": 8,
      "ribotype": 9,
      "antibiotic_resistance": 10,
      "comment": 11,
      "Project": 12,
      "Sample": 13,
      "created": 14,
      "serotype": 15,
      "release_date": 16,
      "barcode": 17
    },
    "display_settings": {
      "lineColors": [
        "#FFFFCC",
        "#CCFFCC"
      ],
      "fontSize": 14,
      "fontColor": "black",
      "fontFamily": "Lucida Grans",
      "gridLineColor": "black",
      "gridLineThickness": 1
    }
  },
  "data": {
    "sort_order": [
      null,
      [
        "None",
        "None",
        "1"
      ],
      [
        "None",
        "None",
        "1"
      ],
      [
        "None",
        "None",
        "1"
      ],
      [
        "None",
        "None",
        "1"
      ],
      [
        "None",
        "None",
        "1"
      ]
    ],
    "strain_ids": [
    ],
    "current_page": 0,
    "experimental_data": "assembly_stats"
  }
}